id,name,model_id:id,group_id:id,perm_read,perm_write,perm_create,perm_unlink
access_op_fees_template_line_back_office_admin,name_op_fees_template_line_back_office_admin,model_op_fees_template_line,openeducat_fees.group_op_fees_admin,1,1,1,1
access_op_student_invoice_wizard,access_op_student_invoice_wizard,model_op_student_invoice_wizard,base.group_user,1,1,1,1
