id,name,model_id:id,group_id:id,perm_read,perm_write,perm_create,perm_unlink
access_op_rubric_element,access_op_rubric_element,model_op_rubric_element,base.group_user,1,0,0,0
access_op_rubric_template,access_op_rubric_template,model_op_rubric_template,base.group_user,1,0,0,0
access_op_assignment_rubric_sub_line,access_op_assignment_rubric_sub_line,model_op_assignment_rubric_sub_line,base.group_user,1,0,0,0

access_op_rubric_element_user,op_rubric_element_user,model_op_rubric_element,openeducat_assignment.group_op_assignment_user,1,1,1,1
access_op_rubric_template_user,op_rubric_template_user,model_op_rubric_template,openeducat_assignment.group_op_assignment_user,1,1,1,1
access_op_assignment_rubric_sub_line_user,op_assignment_rubric_sub_line_user,model_op_assignment_rubric_sub_line,openeducat_assignment.group_op_assignment_user,1,1,1,1
