id,name,model_id:id,group_id:id,perm_read,perm_write,perm_create,perm_unlink
access_op_material_interactive_video_public,access_op_material_interactive_video_public,model_op_material_interactive_video,,1,0,0,0
access_op_material_interactive_video_faculty,access_op_material_interactive_video_faculty,model_op_material_interactive_video,openeducat_lms.group_op_lms_user,1,1,1,1
access_op_material_interactive_video_back_office_admin,access_op_material_interactive_video_back_office_admin,model_op_material_interactive_video,openeducat_lms.group_op_lms_admin,1,1,1,1
