id,name,model_id:id,group_id:id,perm_read,perm_write,perm_create,perm_unlink
access_financial_reports_admin,access_financial_reports,model_financial_reports,base.group_erp_manager,1,1,1,1
access_financial_reports_line_admin,access_financial_reports_line,model_financial_reports_line,base.group_erp_manager,1,1,1,1
access_financial_general_ledger_admin,access_financial_general_ledger,model_financial_general_ledger,base.group_erp_manager,1,1,1,1
access_financial_trial_balance_admin,access_financial_trial_balance,model_financial_trial_balance,base.group_erp_manager,1,1,1,1
access_financial_partner_ledger_admin,access_financial_partner_ledger,model_financial_partner_ledger,base.group_erp_manager,1,1,1,1
access_financial_aged_partner_admin,access_financial_aged_partner,model_financial_aged_partner,base.group_erp_manager,1,1,1,1
access_financial_tax_report_admin,access_financial_tax_report,model_financial_tax_report,base.group_erp_manager,1,1,1,1
access_financial_reports,access_financial_reports,model_financial_reports,base.group_user,1,1,1,0
access_financial_reports_line,access_financial_reports_line,model_financial_reports_line,base.group_user,1,1,1,0
access_financial_general_ledger,access_financial_general_ledger,model_financial_general_ledger,base.group_user,1,1,1,0
access_financial_trial_balance,access_financial_trial_balance,model_financial_trial_balance,base.group_user,1,1,1,0
access_financial_partner_ledger,access_financial_partner_ledger,model_financial_partner_ledger,base.group_user,1,1,1,0
access_financial_aged_partner,access_financial_aged_partner,model_financial_aged_partner,base.group_user,1,1,1,0
access_financial_tax_report,access_financial_tax_report,model_financial_tax_report,base.group_user,1,1,1,0
openeducat_account_financial_reports.access_account_tax_report_line,access_account_tax_report_line,openeducat_account_financial_reports.model_account_tax_report_line,base.group_user,1,1,1,1
