"id","name","model_id:id","group_id:id","perm_read","perm_write","perm_create","perm_unlink"
"access_project_template_user","name_project_template_user","model_project_template","project.group_project_user",1,0,0,0
"access_project_template_manager","name_project_template_manager","model_project_template","project.group_project_manager",1,1,1,1
"access_project_task_template_user","name_project_task_template_user","model_project_task_template","project.group_project_user",1,0,0,0
"access_project_task_template_manager","name_project_task_template_manager","model_project_task_template","project.group_project_manager",1,1,1,1
