id,name,model_id:id,group_id:id,perm_read,perm_write,perm_create,perm_unlink
access_attendance_progress_wizard,name_attendance_progress_wizard,model_attendance_progress_wizard,openeducat_attendance.group_op_attendance_manager,1,1,1,1
access_attendance_progress_wizard_user,name_attendance_progress_wizard_user,model_attendance_progress_wizard,openeducat_attendance.group_op_attendance_user,1,1,1,0
