<?xml version="1.0" standalone="no"?>
<!DOCTYPE svg PUBLIC "-//W3C//DTD SVG 20010904//EN"
 "http://www.w3.org/TR/2001/REC-SVG-20010904/DTD/svg10.dtd">
<svg version="1.0" xmlns="http://www.w3.org/2000/svg"
 width="128.000000pt" height="128.000000pt" viewBox="0 0 128.000000 128.000000"
 preserveAspectRatio="xMidYMid meet">

<g transform="translate(0.000000,128.000000) scale(0.100000,-0.100000)"
fill="#000000" stroke="none">
<path d="M539 1208 c-14 -70 -14 -71 -54 -83 -22 -6 -58 -21 -79 -32 l-39 -20
-59 41 -59 40 -61 -61 -62 -62 38 -57 c40 -60 40 -59 4 -144 -33 -78 -31 -76
-103 -90 l-65 -12 0 -88 0 -87 70 -13 69 -13 16 -46 c9 -25 24 -61 34 -80 l18
-34 -41 -59 -40 -59 61 -61 62 -62 57 39 c54 35 60 37 89 25 16 -7 52 -21 79
-30 54 -20 60 -29 71 -107 l7 -53 88 0 89 0 11 58 c6 31 14 63 18 70 4 8 42
27 85 44 l78 30 56 -37 56 -37 58 58 c33 32 59 62 59 66 0 5 -16 33 -36 62
l-35 54 19 38 c11 22 25 58 32 80 12 41 13 42 79 55 l66 14 3 87 3 86 -58 12
c-32 6 -63 13 -68 14 -6 2 -25 40 -44 85 l-33 82 37 56 37 56 -58 58 c-32 33
-62 59 -66 59 -5 0 -33 -16 -62 -36 l-54 -35 -38 19 c-22 11 -57 25 -80 32
-41 12 -41 12 -54 81 l-12 69 -87 0 -87 0 -15 -72z m172 -34 l14 -65 65 -23
c36 -12 78 -31 93 -40 27 -19 28 -18 82 18 30 20 58 36 62 36 10 0 73 -62 73
-72 0 -5 -16 -32 -35 -62 l-36 -53 30 -57 c17 -31 36 -75 42 -96 11 -37 13
-39 75 -50 l64 -12 0 -58 0 -58 -47 -6 c-75 -11 -81 -15 -94 -54 -6 -20 -25
-63 -41 -94 l-28 -58 37 -56 37 -55 -40 -40 -39 -39 -54 36 -53 36 -67 -30
c-36 -17 -80 -33 -98 -37 -30 -6 -32 -9 -44 -76 l-12 -69 -57 0 -57 0 -12 69
c-12 66 -14 69 -44 75 -18 3 -61 20 -96 36 l-64 31 -55 -37 -55 -36 -39 40
-40 39 37 56 36 55 -29 58 c-16 33 -35 76 -41 96 -11 34 -16 37 -74 50 l-62
13 -3 56 -3 57 38 6 c93 16 91 15 108 64 8 26 26 67 40 91 14 23 25 47 25 52
0 5 -16 32 -37 60 l-36 51 40 40 40 40 56 -37 56 -37 62 31 c33 17 76 33 94
37 31 5 35 10 44 55 6 28 11 59 11 69 0 18 7 20 58 20 l59 0 14 -66z"/>
<path d="M378 639 c-2 -123 1 -193 7 -195 6 -3 123 -3 260 -2 l250 3 0 190 0
190 -257 3 -257 2 -3 -191z m459 150 c-1 -3 -48 -54 -103 -113 l-101 -107 -28
33 c-15 18 -60 67 -101 109 -41 42 -74 78 -74 80 0 2 92 4 205 4 113 0 204 -3
202 -6z m31 -218 l-3 -70 -68 60 -67 61 67 75 68 76 3 -66 c2 -36 2 -98 0
-136z m-391 120 l62 -68 -62 -61 c-35 -34 -66 -62 -70 -62 -4 0 -7 59 -7 130
0 72 3 130 8 130 4 0 35 -31 69 -69z m195 -126 l33 37 65 -61 65 -60 -200 0
-200 0 65 59 64 60 37 -36 37 -36 34 37z"/>
</g>
</svg>
